0;569.7113647460938
63.33143050166527;569.0643310546875
126.69620354960288;570.2577514648438
190.0610779114789;570.6302490234375
253.42597759079513;569.703125
316.79088739605294;568.8861694335938
380.15580226493205;568.0692138671875
443.5207200252687;566.5045776367188
506.8856395934229;566
570.2505603665544;566.2487182617188
633.6154819848518;567.380615234375
696.9804042148118;568.717529296875
760.345326905991;568.1408081054688
823.7102499508765;566.6380004882812
887.0751732744707;565.3824462890625
950.4400968185932;565.130859375
1013.8050205450102;565.7926025390625
1077.1699444203093;564.7703247070312
1140.53486841892;564.9590454101562
1203.8997925228573;565.80126953125
1267.2647167160135;566.8291625976562
1330.629640984272;567.4400634765625
1393.9945653184272;567.5982666015625
1457.359489708797;567.9556274414062
1520.7244141503204;568.6357421875
1584.0893386354053;568.5473022460938
1647.454263159931;568
1710.8191877192403;568
1774.1841123074973;568
1837.5490369264623;566.55908203125
1900.9139615684717;566.460693359375
1964.278886233734;567.7234497070312
2027.6438109185735;569.4853515625
2091.008735622548;570.9803466796875
2154.3736603432344;571.4129028320312
2217.738585079818;570.7332153320312
2281.1035098300886;570.550048828125
2344.4684345928345;570.4879760742188
2407.8333593691937;568.9797973632812
2471.1982841548506;567.7393188476562
2534.5632089520277;566.8519897460938
2597.9281337584625;565.4482421875
2661.2930585732533;563.9121704101562
2724.657983395347;563.5682983398438
2788.0229082273167;565.9874267578125
2851.38783306553;567.8026733398438
2914.752757909915;568.756103515625
2978.117682761005;569
3041.4826076182126;568.9068603515625
3104.8475324804463;568.3096313476562
3168.2124573479027;568.0062866210938
3231.5773822202186;570.1300048828125
3294.942307096699;571.5100708007812
3358.3072319780986;572.170166015625
3421.672156863927;572.2188110351562
3485.0370817531716;571.244384765625
3548.4020066460216;570.2327880859375
3611.76693154147;570
3675.131856441612;570.4117431640625
3738.4967813438275;571.8175048828125
3801.861706250046;574.5354614257812
3865.226631157834;576.6233520507812
3928.5915560702097;577.6097412109375
3991.9564809822077;577.4759521484375
4055.3214058992835;577
4118.68633081753;577.178466796875
4182.051255738123;578.4468994140625
4245.416180661138;578.6849975585938
4308.781105585539;578.261474609375
4372.1460305130795;578.0001831054688
4435.510955440552;578.2813720703125
4498.8758803714145;578.315185546875
4562.240805304081;578.4727172851562
4625.6057302363515;579.7156372070312
4688.970655172311;580.6780395507812
4752.335580108508;580.9617309570312
4815.70050504737;581.20751953125
4879.065429986307;581.9508666992188
4942.4303549278375;582
5005.79527987018;581.4326171875
5069.16020481242;580.8973999023438
5132.525129757912;580.5101318359375
5195.8900547037565;579.0782470703125
5259.254979650228;578.576416015625
5322.619904598512;579.141845703125
5385.984829547379;579.9702758789062
5449.349754496278;580.0355834960938
5512.714679447552;579.266845703125
5576.079604399011;579.9262084960938
5639.444529351288;579.2632446289062
5702.809454304586;579
5766.174379259965;579.37060546875
5829.539304214841;580
5892.904229169823;579.9955444335938
5956.26915412842;579.1785888671875
6019.634079084505;579.0966186523438
6082.999004043442;579.3699340820312
6146.3639290018455;579.7114868164062
6209.728853961535;579.480224609375
6273.093778920714;578.8208618164062
6336.4587038823265;579.5240478515625
6399.823628843612;580.0614624023438
6463.188553804837;579.8428344726562
6526.553478767774;579.3572998046875
6589.918403731377;579.514892578125
6653.283328695004;580.2156372070312
6716.648253657583;580.5540161132812
6780.013178623089;580.5377807617188
6843.378103588681;581.0284423828125
6906.743028554711;583.4308471679688
6970.107953519683;584.8342895507812
7033.472878486628;583.8523559570312
7096.837803454085;582.0538940429688
7160.202728420252;580.6568603515625
7223.567653388176;580.312744140625
7286.93257835748;580.9884033203125
7350.2975033257635;580.6775512695312
7413.662428294771;580.0919189453125
7477.027353263735;579.4381103515625
7540.392278233898;579.0914306640625
7603.757203204597;578.9679565429688
7667.122128174338;579.1470336914062
7730.487053145866;578.6563110351562
7793.8519781173945;578.5093994140625
7857.216903087829;578.6670532226562
7920.581828059437;578.6783447265625
7983.946753032546;578.01904296875
8047.311678004138;577.3289794921875
8110.676602976904;577.2975463867188
8174.041527949914;577.2667236328125
8237.406452924391;577.0894165039062
8300.771377897498;577.2774658203125
8364.13630287088;577.9367065429688
8427.501227845389;578.6817626953125
8490.86615281931;579
8554.231077794324;579.1890258789062
8617.596002769904;579.764892578125
8680.96092774394;581.4520263671875
8744.325852719612;582.6882934570312
8807.690777695056;583.5201416015625
8871.055702671301;583.7730102539062
8934.420627646403;584.0753173828125
8997.785552622196;584.5899047851562
9061.150477600306;586.927734375
9124.515402575915;588.3076171875
9187.880327553732;588.4810180664062
9251.245252530465;588.1351318359375
9314.610177507235;588.3767700195312
9377.975102484772;588.9646606445312
9441.340027462478;590.0475463867188
9504.704952441061;590.6703491210938
9568.069877418631;591
9631.434802397267;590.796630859375
9694.799727375586;590
9758.164652352962;590
9821.52957733222;588.9833374023438
9884.894502311152;587.3460083007812
9948.259427290306;585.5545043945312
10011.62435226908;583.8978881835938
10074.989277249178;583.24853515625
10138.35420222855;583.5751953125
10201.719127207502;584.0555419921875
10265.084052188064;584.9598999023438
10328.448977167322;586.3441772460938
10391.813902146903;587.973388671875
10455.17882712693;587.7612915039062
10518.54375210822;587.6076049804688
10581.90867708797;588.2150268554688
10645.273602068344;589
10708.638527049381;589.2733764648438
10772.00345203045;591.72412109375
10835.368377011251;592
10898.733301993077;591.5853271484375
10962.098226974153;591.6104736328125
11025.463151955268;592.5272216796875
11088.828076936894;594.9779663085938
11152.193001917838;597.3199462890625
11215.557926900236;599.90283203125
11278.922851882413;602.8744506835938
11342.287776862744;605.5206909179688
11405.652701846238;607.154541015625
11469.017626827383;608.7883911132812
11532.382551809975;609.7111206054688
11595.747476792554;610.528076171875
11659.112401774171;610.8333129882812
11722.477326757577;611.1619262695312
11785.842251739354;611.9788208007812
11849.207176722493;612.7957153320312
11912.572101705617;613.6126708984375
11975.937026688414;614.750732421875
12039.301951670692;616.0736083984375
12102.66687665466;616.2313232421875
12166.031801637522;616.3890380859375
12229.396726620202;616.5467529296875
12292.761651604244;616.7044677734375
12356.126576587843;616.622314453125
12419.491501571465;616.1310424804688
12482.85642655457;616.958740234375
12546.22135153762;618.5637817382812
12609.586276521175;619.2952880859375
12672.951201505408;619.7960205078125
12736.316126488751;620.0444946289062
12799.681051472562;620.0831909179688
12863.045976457397;620.8665161132812
12926.410901441008;621.9815063476562
12989.775826425433;622.8410034179688
13053.140751408371;623.27490234375
13116.505676394034;622.9671630859375
13179.870601378458;622.9171752929688
13243.235526362761;623.0706787109375
13306.600451347553;623.8133544921875
13369.965376332064;624.7880249023438
13433.330301315726;625.6436767578125
13496.695226300617;626.0250244140625
13560.060151286058;626.7327880859375
13623.425076270129;627.663818359375
13686.790001256017;628.6566772460938
13750.154926240455;629.9688720703125
13813.519851224437;631.1035766601562
13876.884776210703;631.955810546875
13940.24970119566;632.754150390625
14003.614626180331;633.5504150390625
14066.979551166189;634.12158203125
14130.34447615107;634.1317138671875
14193.709401136202;633.8770751953125
14257.074326122538;634.0306396484375
14320.43925110765;634.162109375
14383.804176092443;635.4649047851562
14447.169101077201;637.868408203125
14510.534026064026;640.1063842773438
14573.898951048997;640.92333984375
14637.263876035247;640.6607055664062
14700.628801021085;641.089111328125
14763.993726007207;641.7144775390625
14827.358650992532;642.0028686523438
14890.723575978494;642.1714477539062
14954.088500964917;642.0579223632812
15017.453425950833;641.0299682617188
15080.818350936675;640.646240234375
15144.183275922822;640.3609008789062
15207.548200908715;639.1306762695312
15270.913125895613;640.0289916992188
15334.278050881509;641.528564453125
15397.642975867526;642.543212890625
15461.007900853785;643.2135620117188
15524.372825840384;643.8837890625
15587.737750827337;644.8118896484375
15651.102675813103;645.0125732421875
15714.467600799177;644.65380859375
15777.832525786105;644.7642211914062
15841.197450771522;644.8182373046875
15904.562375759275;644.3406982421875
15967.927300744986;643.9450073242188
16031.292225732363;646.13330078125
16094.657150719606;647.6199340820312
16158.022075705549;648.2151489257812
