0;1128.636352539062
96.21743843402695;1106.20263671875
192.78677592937171;1088.228637695312
289.3561256028444;1077.559204101562
385.92547831400856;1088.868408203125
482.4948322381854;1130.101440429688
579.0641867678834;1164.96142578125
675.633541643827;1197.591552734375
772.2028967366871;1219.654663085938
868.7722519747514;1230.779174804688
965.3416073113749;1224.889038085938
1061.9109627225503;1204.280517578125
1158.4803181894686;1164.957397460938
1255.049673698055;1118.099975585938
1351.6190292403367;1069.140747070312
1448.1883848091372;1023.623291015625
1544.757740398941;980.6151733398438
1641.3270960068764;944.0543212890625
1737.8964516297674;915.18212890625
1834.4658072647048;897.974365234375
1931.035162910836;894.3261108398438
2027.6045185656005;892.6729736328125
2124.1738742288;885.0092163085938
2220.743229898269;869.7745971679688
2317.312585574691;847.30908203125
2413.881941255287;829.7859497070312
2510.4512969411867;812.9368286132812
2607.020652630718;794.9725341796875
2703.590008324341;774.800048828125
2800.159364020925;769.1054077148438
2896.728719721241;771.3955688476562
2993.298075423036;781.5386352539062
3089.867431127949;802.12158203125
3186.436786835229;825.9219970703125
3283.0061425442977;844.6149291992188
3379.5754982553863;860.6715087890625
3476.1448539684516;881.75927734375
3572.7142096825182;902.4317016601562
3669.283565398891;914.5205688476562
3765.852921115728;909.2413330078125
3862.422276834058;900.32666015625
3958.991632552319;903.892578125
4055.5609882728763;921.9119262695312
4152.130343994354;948.7005615234375
4248.699699717297;966.5746459960938
4345.269055439947;987.7781982421875
4441.838411163563;1006.202697753906
4538.40776688837;1021.609313964844
4634.9771226142075;1035.216796875
4731.546478340831;1053.376708984375
4828.115834066811;1076.1455078125
4924.685189793523;1098.655639648438
5021.254545521489;1112.68896484375
5117.823901249628;1118.033813476562
5214.393256978667;1117.902954101562
5310.962612708027;1108.096557617188
5407.5319684375445;1095.673828125
5504.101324168791;1081.302368164062
5600.670679898173;1063.751953125
5697.24003562862;1041.37255859375
5793.809391360691;1020.544372558594
5890.378747092622;1001.914611816406
5986.948102824051;981.2909545898438
6083.5174585559225;961.6509399414062
6180.086814288786;942.3304443359375
6276.656170021749;921.5030517578125
6373.225525754382;902.7264404296875
6469.794881487794;881.856201171875
6566.364237221108;863.8677368164062
6662.93359295584;847.8721313476562
6759.502948688536;836.2030029296875
6856.072304423098;819.4315185546875
6952.641660157986;800.3964233398438
7049.211015892021;784.2117919921875
7145.780371626962;770.6497192382812
7242.349727361465;760.025634765625
7338.919083096467;747.9725341796875
7435.488438831654;735.4452514648438
7532.057794567861;722.6553344726562
7628.627150303968;713.1973876953125
7725.196506039596;700.2233276367188
7821.765861774476;685.7976684570312
7918.33521751153;669.9301147460938
8014.904573247143;659.8781127929688
8111.473928983784;651.5167846679688
8208.043284719906;642.9758911132812
8304.612640456582;638.801513671875
8401.181996193107;633.3961181640625
8497.751351930112;630.8759155273438
8594.320707666999;629.01416015625
8690.890063403176;628.7507934570312
8787.459419141034;623.4146118164062
8884.028774878494;620.8938598632812
8980.598130614833;634.509765625
9077.167486352482;640.2863159179688
9173.736842090068;657.4093627929688
9270.306197827356;682.8953247070312
9366.875553565442;699.5004272460938
9463.444909302467;706.5315551757812
9560.014265040692;711.6988525390625
9656.583620779085;710.8067016601562
9753.152976515912;698.9425659179688
9849.72233225456;676.9578247070312
9946.291687992762;654.1973876953125
10042.861043730498;633.3279418945312
10139.430399468298;621.8896484375
10235.999755206876;608.3506469726562
10332.569110945191;597.1398315429688
10429.138466682876;588.091064453125
10525.707822421204;580.1466674804688
10622.277178160175;571.9364013671875
10718.846533899246;561.0708618164062
10815.415889637423;549.5936279296875
10911.985245375294;546.6017456054688
11008.554601114402;542.625732421875
11105.123956853557;539.7968139648438
11201.693312591484;541.6368408203125
11298.262668330863;539.525146484375
11394.832024069578;541.7113037109375
11491.401379809655;546.6846313476562
11587.970735548055;547.1852416992188
11684.540091286324;544.9830932617188
11781.109447025137;541.8736572265625
11877.678802764318;541.5264282226562
11974.24815850398;540.8043212890625
12070.817514242603;541.187255859375
12167.386869982007;550.0368041992188
12263.956225721407;557.2032470703125
12360.525581461434;553.827880859375
12457.09493719961;550.7406005859375
12553.664292939484;548.7500610351562
12650.233648679014;549.1781616210938
12746.803004417452;548.938232421875
12843.372360157397;554.2416381835938
12939.941715897445;563.14794921875
13036.511071637133;559.4443359375
13133.080427376208;557.7836303710938
13229.64978311559;553.3419799804688
13326.219138854958;547.3736572265625
13422.788494594222;542.8328857421875
13519.35785033344;538.330322265625
13615.927206074191;532.397216796875
13712.496561813688;526.4105834960938
13809.06591755307;527.671875
13905.635273292615;528.8710327148438
14002.2046290328;521.2177124023438
14098.773984771673;507.0498352050781
14195.343340512905;491.6712951660156
14291.91269625114;480.0245361328125
14388.482051992227;468.9249267578125
14485.051407731944;460.0028686523438
14581.620763472507;460.6502075195312
14678.19011921176;467.2190551757812
14774.759474951543;477.7850341796875
14871.328830692102;494.0040893554688
14967.898186432165;504.8758850097656
15064.467542171547;504.9529113769531
15161.036897911568;497.1844177246094
15257.606253651695;499.076904296875
15354.175609391694;509.7601013183594
15450.744965131176;507.1049194335938
15547.3143208715;502.1112976074219
15643.883676611635;516.25537109375
15740.453032352292;528.642822265625
15837.022388091553;538.6385498046875
15933.591743832148;544.0742797851562
16030.161099572362;549.4381103515625
16126.730455313476;553.4766845703125
16223.29981105317;565.5357055664062
16319.869166793405;585.6025390625
16416.438522532997;605.9605102539062
16513.007878273518;622.2540893554688
16609.57723401304;638.1212768554688
16706.146589754102;650.7047119140625
16802.715945493797;663.3572387695312
16899.285301234384;673.7360229492188
16995.854656975207;681.8788452148438
17092.424012715728;685.5123291015625
17188.993368456377;682.9317626953125
17285.562724195934;684.441650390625
17382.13207993653;691.4510498046875
17478.70143567701;702.48681640625
17575.27079141709;710.46240234375
17671.84014715721;715.3201904296875
17768.40950289761;713.3955078125
17864.978858638216;702.9735107421875
17961.548214378265;679.5905151367188
18058.117570119415;657.4373779296875
18154.686925859147;639.3186645507812
18251.256281599948;630.5332641601562
18347.825637340524;633.4706420898438
18444.39499308037;638.5107421875
18540.964348821628;639.9510498046875
18637.533704561345;650.4534912109375
18734.10306030255;670.2860107421875
18830.672416042315;689.29736328125
18927.24177178404;693.9204711914062
19023.811127525085;694.0534057617188
19120.380483265064;694.7286987304688
19216.949839004817;698.0769653320312
19313.51919474587;695.327392578125
19410.088550486427;696.647216796875
19506.657906226905;704.5864868164062
19603.227261967255;710.5264282226562
19699.796617708325;705.0499877929688
19796.365973448465;692.9693603515625
19892.93532918944;678.7820434570312
19989.504684930318;667.25244140625
20086.074040671403;657.0541381835938
20182.643396411066;652.7933349609375
20279.21275215232;647.825439453125
20375.78210789262;639.4113159179688
20472.351463632807;637.2675170898438
20568.920819373787;642.8428344726562
20665.490175114785;649.9642333984375
20762.05953085513;648.7605590820312
20858.628886596158;639.8056640625
20955.19824233754;625.0119018554688
21051.767598077397;608.46337890625
21148.33695381898;596.61376953125
21244.90630955893;581.0992431640625
21341.47566530048;570.1663208007812
21438.045021041627;562.8319091796875
21534.614376781352;557.40576171875
21631.183732522564;551.7457885742188
21727.753088262707;546.384765625
21824.32244400341;543.9320678710938
21920.891799744913;536.2103881835938
22017.461155485544;543.18115234375
22114.030511226;550.8624877929688
22210.599866967015;549.1060791015625
22307.169222707813;535.5404663085938
22403.738578448676;520.8756713867188
22500.307934188753;511.811767578125
22596.877289930722;505.0353393554688
22693.446645670476;502.7291564941406
22790.016001411324;502.37548828125
22886.585357152268;497.7954711914062
22983.154712893174;488.0827026367188
23079.72406863427;474.9397583007812
23176.293424375464;475.7247314453125
23272.862780116135;485.875244140625
23369.43213585675;494.0511474609375
23466.00149159831;506.6221923828125
23562.570847338335;518.9158935546875
23659.140203079038;528.3298950195312
23755.70955882066;529.7425537109375
23852.27891456144;526.318115234375
23948.84827030228;521.8614501953125
24045.41762604279;519.5462036132812
24141.98698178434;520.9388427734375
24238.55633752545;525.650634765625
24335.125693266087;531.3099365234375
24431.695049007278;535.319580078125
24528.264404747988;536.0941162109375
24624.83376048908;534.0699462890625